
  0  Density =     0.000000 gr/cm3       nElements = 1  I = 19.2 eV
      0        1                   1.008                 1.000000

  1  Density =     0.26 gr/cm3       nElements = 9  I = 75 eV
      0        1                   1.008                 0.103
      1        6                  12.011                 0.105
      2        7                  14.007                 0.031
      3        8                  15.999                 0.749
      4       11                  22.990                 0.002
      5       15                  30.974                 0.002
      6       16                  32.066                 0.003
      7       17                  35.453                 0.003
      8       19                  39.098                 0.002

 2  Density =     0.95 gr/cm3       nElements = 7  I = 63 eV
      0        1                   1.008                 0.114
      1        6                  12.011                 0.598
      2        7                  14.007                 0.007
      3        8                  15.999                 0.278
      4       11                  22.990                 0.001
      5       16                  32.066                 0.001
      6       17                  35.453                 0.001

 3  Density =     1.06 gr/cm3       nElements = 9  I = 74 eV
      0        1                   1.008                 0.102
      1        6                  12.011                 0.139
      2        7                  14.007                 0.03
      3        8                  15.999                 0.716
      4       11                  22.990                 0.002
      5       15                  30.974                 0.003
      6       16                  32.066                 0.003
      7       17                  35.453                 0.002
      8       19                  39.098                 0.003

 4  Density =     1.1 gr/cm3       nElements = 8  I = 75 eV
      0        1                   1.008                 0.096
      1        6                  12.011                 0.099
      2        7                  14.007                 0.022
      3        8                  15.999                 0.744
      4       11                  22.990                 0.005
      5       15                  30.974                 0.022
      6       16                  32.066                 0.009
      7       17                  35.453                 0.003

 5  Density =     1.18 gr/cm3       nElements = 12  I = 77 eV
      0        1                   1.008                 0.085
      1        6                  12.011                 0.404
      2        7                  14.007                 0.028
      3        8                  15.999                 0.367
      4       11                  22.990                 0.001
      5       12                  24.305                 0.001
      6       15                  30.974                 0.034
      7       16                  32.066                 0.002
      8       17                  35.453                 0.002
      9       19                  39.098                    0.001
      10      20                  40.078                 0.074
      11      26                  55.845                    0.001

 6  Density =     1.92 gr/cm3       nElements = 9  I = 92 eV
      0        1                   1.008                 0.034
      1        6                  12.011                 0.155
      2        7                  14.007                 0.042
      3        8                  15.999                 0.435
      4       11                  22.990                 0.001
      5       12                  24.305                 0.002
      6       15                  30.974                 0.103
      7       16                  32.066                 0.003
      8       20                  40.078                 0.225

 7  Density =     3.217000 gr/cm3       nElements = 2  I = 183.344 eV
      0       13                  26.981539                 0.812153
      1       26                  55.845000                 0.187847 
     
===================================================================================
